All statistics are based on contigs of size >= 500 bp, unless otherwise noted (e.g., "# contigs (>= 0 bp)" and "Total length (>= 0 bp)" include all contigs).

Assembly  # contigs (>= 0 bp)  # contigs (>= 1000 bp)  # contigs (>= 5000 bp)  # contigs (>= 10000 bp)  # contigs (>= 25000 bp)  # contigs (>= 50000 bp)  Total length (>= 0 bp)  Total length (>= 1000 bp)  Total length (>= 5000 bp)  Total length (>= 10000 bp)  Total length (>= 25000 bp)  Total length (>= 50000 bp)  # contigs  Largest contig  Total length  GC (%)  N50    N75    L50  L75  # N's per 100 kbp  # predicted genes (unique)  # predicted genes (>= 0 bp)  # predicted genes (>= 300 bp)  # predicted genes (>= 1500 bp)  # predicted genes (>= 3000 bp)
contigs   55957                1514                    487                     433                      308                      188                      47488817                31640458                   30105935                   29727220                    27608666                    23358912                    7638       531082          35679152      48.23   85250  30098  105  278  0.00               24231                       23820 + 438 part             21281 + 380 part               4148 + 16 part                  644 + 3 part                  
